1	17	2000	5000	10000
2	17	2000	5000	10000
3	17	2000	5000	10900
4	17	2000	5000	13000
5	25	10000	30000	60000
6	30	20000	45000	90000
7	20	10000	40000	80000
8	20	8000	20000	60000
9	35	20000	50000	130000
10	35	30000	80000	180000
11	35	20000	40000	150000
12	40	10000	65000	200000
13	30	20000	60000	80000
14	20	10000	30000	50000
15	20	20000	80000	100000
16	30	20000	100000	200000
17	35	10000	60000	100000
18	30	20000	60000	160000
19	25	50000	140000	200000
20	25	30000	80000	150000
21	45	10000	130000	200000
22	40	40000	160000	290000
23	40	20000	110000	200000
24	25	60000	120000	180000
25	25	2000	7000	10000
26	40	10000	180000	250000
27	40	80000	300000	550000
28	30	100000	200000	400000
29	40	20000	80000	200000
30	35	40000	120000	200000
31	25	40000	60000	120000
32	45	60000	200000	450000
33	55	50000	100000	150000
34	25	30000	60000	100000
35	20	10000	40000	70000
36	40	10000	40000	80000
37	20	10000	50000	100000
38	15	10000	30000	50000
39	30	30000	140000	220000
40	30	30000	80000	170000
41	25	40000	140000	280000
42	15	20000	100000	200000
43	40	10000	80000	180000
44	40	10000	33000	180000
45	30	10000	50000	180000
46	60	10000	30000	180000
47	35	10000	25000	50000
48	30	50000	100000	130000
49	30	4000	20000	40000
50	30	2000	60000	150000
51	30	10000	60000	200000
52	40	10000	80000	160000
53	40	10000	70000	140000
54	30	50000	200000	400000
55	20	10000	60000	150000
56	45	10000	60000	130000
57	35	10000	120000	200000
58	30	20000	60000	150000
59	25	2000	30000	50000
60	20	50000	100000	130000
61	20	2000	60000	80000
62	40	50000	350000	650000
63	70	20000	60000	200000
64	40	10000	20000	40000
65	45	40000	200000	400000
66	30	40000	100000	240000
67	40	20000	60000	110000
68	30	90000	200000	250000
69	50	20000	60000	300000
70	50	10000	50000	100000
71	25	10000	90000	150000
72	20	2000	50000	70000
73	25	80000	60000	80000
74	20	40000	180000	280000
75	20	20000	80000	100000
76	35	10000	30000	40000
77	20	10000	80000	100000
78	25	30000	80000	100000
79	30	10000	45000	75000
80	30	10000	50000	100000
81	25	20000	40000	80000
82	35	40000	110000	150000
83	30	20000	90000	120000
84	25	15000	36000	83000
85	20	2000	30000	50000
86	20	20000	60000	130000
87	20	20000	60000	150000
88	20	10000	40000	75000
89	20	20000	60000	130000
90	25	20000	50000	80000
91	30	60000	120000	180000
92	30	40000	120000	180000
93	20	20000	40000	80000
94	35	30000	120000	190000
95	35	10000	40000	70000
96	25	10000	40000	70000
97	25	10000	25000	42000
98	25	10000	40000	58000
99	35	10000	80000	120000
100	35	10000	200000	300000
101	45	10000	200000	300000
102	25	10000	80000	120000
103	35	10000	50000	100000
104	25	10000	200000	300000
105	40	10000	300000	500000
106	30	10000	250000	350000
107	25	10000	80000	150000
108	40	30000	100000	150000
109	20	10000	20000	30000
110	20	10000	20000	30000
111	25	10000	12000	15000
112	20	20000	60000	120000
113	20	10000	100000	150000
114	20	30000	100000	120000
115	20	10000	180000	260000
116	20	10000	20000	30000
117	20	10000	30000	50000
118	30	10000	60000	95000
119	30	15000	40000	60000
120	30	30000	40000	60000
121	20	30000	40000	60000
122	20	30000	40000	60000
123	20	30000	40000	60000
124	20	30000	40000	60000
125	20	30000	40000	60000
126	20	30000	40000	60000
127	20	30000	40000	60000
128	20	30000	40000	60000
129	20	30000	40000	60000
130	20	30000	40000	60000
131	20	30000	40000	60000
132	20	30000	40000	60000
